<?xml version="1.0" encoding="UTF-8"?>
<svg xmlns="http://www.w3.org/2000/svg" xmlns:xlink="http://www.w3.org/1999/xlink" width="30.68pt" height="45.63pt" viewBox="0 0 30.68 45.63" version="1.1">
<defs>
<clipPath id="clip1">
  <path d="M 0 0 L 30.679688 0 L 30.679688 45.628906 L 0 45.628906 Z M 0 0 "/>
</clipPath>
</defs>
<g id="surface1">
<g clip-path="url(#clip1)" clip-rule="nonzero">
<path style="fill:none;stroke-width:0.79701;stroke-linecap:butt;stroke-linejoin:miter;stroke:rgb(100%,0%,0%);stroke-opacity:1;stroke-miterlimit:10;" d="M 0.0004375 0.00053125 L 29.887156 0.00053125 L 29.887156 29.88725 L 14.94575 44.832563 L 0.0004375 29.88725 Z M 0.0004375 0.00053125 " transform="matrix(1,0,0,-1,0.398,45.231)"/>
</g>
<path style="fill:none;stroke-width:0.3985;stroke-linecap:butt;stroke-linejoin:miter;stroke:rgb(100%,0%,0%);stroke-opacity:1;stroke-miterlimit:10;" d="M 0.879344 4.395063 L 29.00825 4.395063 " transform="matrix(1,0,0,-1,0.398,45.231)"/>
<path style="fill:none;stroke-width:0.3985;stroke-linecap:butt;stroke-linejoin:miter;stroke:rgb(100%,0%,0%);stroke-opacity:1;stroke-miterlimit:10;" d="M 4.394969 0.879438 L 4.394969 29.008344 " transform="matrix(1,0,0,-1,0.398,45.231)"/>
<path style="fill:none;stroke-width:0.3985;stroke-linecap:butt;stroke-linejoin:miter;stroke:rgb(100%,0%,0%);stroke-opacity:1;stroke-miterlimit:10;" d="M 0.879344 11.426313 L 29.00825 11.426313 " transform="matrix(1,0,0,-1,0.398,45.231)"/>
<path style="fill:none;stroke-width:0.3985;stroke-linecap:butt;stroke-linejoin:miter;stroke:rgb(100%,0%,0%);stroke-opacity:1;stroke-miterlimit:10;" d="M 11.426219 0.879438 L 11.426219 29.008344 " transform="matrix(1,0,0,-1,0.398,45.231)"/>
<path style="fill:none;stroke-width:0.3985;stroke-linecap:butt;stroke-linejoin:miter;stroke:rgb(100%,0%,0%);stroke-opacity:1;stroke-miterlimit:10;" d="M 0.879344 18.461469 L 29.00825 18.461469 " transform="matrix(1,0,0,-1,0.398,45.231)"/>
<path style="fill:none;stroke-width:0.3985;stroke-linecap:butt;stroke-linejoin:miter;stroke:rgb(100%,0%,0%);stroke-opacity:1;stroke-miterlimit:10;" d="M 18.461375 0.879438 L 18.461375 29.008344 " transform="matrix(1,0,0,-1,0.398,45.231)"/>
<path style="fill:none;stroke-width:0.3985;stroke-linecap:butt;stroke-linejoin:miter;stroke:rgb(100%,0%,0%);stroke-opacity:1;stroke-miterlimit:10;" d="M 0.879344 25.492719 L 29.00825 25.492719 " transform="matrix(1,0,0,-1,0.398,45.231)"/>
<path style="fill:none;stroke-width:0.3985;stroke-linecap:butt;stroke-linejoin:miter;stroke:rgb(100%,0%,0%);stroke-opacity:1;stroke-miterlimit:10;" d="M 25.492625 0.879438 L 25.492625 29.008344 " transform="matrix(1,0,0,-1,0.398,45.231)"/>
<path style="fill-rule:nonzero;fill:rgb(100%,0%,0%);fill-opacity:1;stroke-width:0.3985;stroke-linecap:butt;stroke-linejoin:miter;stroke:rgb(100%,0%,0%);stroke-opacity:1;stroke-miterlimit:10;" d="M 16.437937 14.945844 C 16.437937 15.770063 15.769969 16.438031 14.94575 16.438031 C 14.117625 16.438031 13.449656 15.770063 13.449656 14.945844 C 13.449656 14.117719 14.117625 13.44975 14.94575 13.44975 C 15.769969 13.44975 16.437937 14.117719 16.437937 14.945844 Z M 16.437937 14.945844 " transform="matrix(1,0,0,-1,0.398,45.231)"/>
<path style="fill:none;stroke-width:0.3985;stroke-linecap:butt;stroke-linejoin:miter;stroke:rgb(100%,0%,0%);stroke-opacity:1;stroke-miterlimit:10;" d="M 14.94575 14.945844 L 8.234812 21.652875 " transform="matrix(1,0,0,-1,0.398,45.231)"/>
<path style="fill:none;stroke-width:0.31879;stroke-linecap:round;stroke-linejoin:round;stroke:rgb(100%,0%,0%);stroke-opacity:1;stroke-miterlimit:10;" d="M -1.195244 1.594194 C -1.095806 0.997567 0.000772522 0.0998639 0.299086 0.000426036 C 0.000772522 -0.0990118 -1.095806 -0.996715 -1.195244 -1.593342 " transform="matrix(-0.7071,-0.7071,-0.7071,0.7071,8.63366,23.57837)"/>
<path style="fill:none;stroke-width:0.3985;stroke-linecap:butt;stroke-linejoin:miter;stroke:rgb(100%,0%,0%);stroke-opacity:1;stroke-miterlimit:10;" d="M 14.94575 14.945844 L 14.94575 21.520063 " transform="matrix(1,0,0,-1,0.398,45.231)"/>
<path style="fill:none;stroke-width:0.31879;stroke-linecap:round;stroke-linejoin:round;stroke:rgb(100%,0%,0%);stroke-opacity:1;stroke-miterlimit:10;" d="M -1.19364 1.59215 C -1.095984 0.994494 0.0016725 0.0999625 0.298548 -0.0016 C 0.0016725 -0.0992562 -1.095984 -0.997694 -1.19364 -1.59535 " transform="matrix(0,-1,-1,0,15.34215,23.71261)"/>
<path style="fill:none;stroke-width:0.3985;stroke-linecap:butt;stroke-linejoin:miter;stroke:rgb(100%,0%,0%);stroke-opacity:1;stroke-miterlimit:10;" d="M 14.94575 14.945844 L 21.652781 21.652875 " transform="matrix(1,0,0,-1,0.398,45.231)"/>
<path style="fill:none;stroke-width:0.31879;stroke-linecap:round;stroke-linejoin:round;stroke:rgb(100%,0%,0%);stroke-opacity:1;stroke-miterlimit:10;" d="M -1.195736 1.593834 C -1.096298 0.997207 0.000280194 0.0995041 0.298594 0.0000662919 C 0.000280194 -0.0993716 -1.096298 -0.997074 -1.195736 -1.593701 " transform="matrix(0.7071,-0.7071,-0.7071,-0.7071,22.05063,23.57837)"/>
<path style="fill:none;stroke-width:0.3985;stroke-linecap:butt;stroke-linejoin:miter;stroke:rgb(100%,0%,0%);stroke-opacity:1;stroke-miterlimit:10;" d="M 14.94575 14.945844 L 8.371531 14.945844 " transform="matrix(1,0,0,-1,0.398,45.231)"/>
<path style="fill:none;stroke-width:0.31879;stroke-linecap:round;stroke-linejoin:round;stroke:rgb(100%,0%,0%);stroke-opacity:1;stroke-miterlimit:10;" d="M -1.196944 1.595962 C -1.095381 0.9944 -0.00163125 0.0998687 0.29915 -0.00169375 C -0.00163125 -0.09935 -1.095381 -0.997788 -1.196944 -1.595444 " transform="matrix(-1,0,0,1,8.7679,30.28685)"/>
<path style="fill:none;stroke-width:0.3985;stroke-linecap:butt;stroke-linejoin:miter;stroke:rgb(100%,0%,0%);stroke-opacity:1;stroke-miterlimit:10;" d="M 14.94575 14.945844 L 21.519969 14.945844 " transform="matrix(1,0,0,-1,0.398,45.231)"/>
<path style="fill:none;stroke-width:0.31879;stroke-linecap:round;stroke-linejoin:round;stroke:rgb(100%,0%,0%);stroke-opacity:1;stroke-miterlimit:10;" d="M -1.193734 1.595444 C -1.096078 0.997788 0.00157875 0.09935 0.298454 0.00169375 C 0.00157875 -0.0998687 -1.096078 -0.9944 -1.193734 -1.595962 " transform="matrix(1,0,0,-1,21.91639,30.28685)"/>
<path style="fill:none;stroke-width:0.3985;stroke-linecap:butt;stroke-linejoin:miter;stroke:rgb(100%,0%,0%);stroke-opacity:1;stroke-miterlimit:10;" d="M 14.94575 14.945844 L 14.94575 8.371625 " transform="matrix(1,0,0,-1,0.398,45.231)"/>
<path style="fill:none;stroke-width:0.31879;stroke-linecap:round;stroke-linejoin:round;stroke:rgb(100%,0%,0%);stroke-opacity:1;stroke-miterlimit:10;" d="M -1.197038 1.59535 C -1.095475 0.997694 -0.001725 0.0992562 0.299056 0.0016 C -0.001725 -0.0999625 -1.095475 -0.994494 -1.197038 -1.59215 " transform="matrix(0,1,1,0,15.34215,36.8611)"/>
</g>
</svg>
